{
    "page": {
        "endRow": 0,
        "pageNum": 1,
        "pageSize": 10,
        "pages": 29,
        "startRow": 0,
        "total": 283,
        "value": "a"
    },
    "tableContent": [
        {
            "fginvn001": "1",
            "fginvn004": "fginvn004Str",
            "fginvn002": "A201605310100011",
            "fginvn003": "A052601",
            "fginvn006": "MA",
            "fginvn007": "Inventory",
            "measureunitName":"套"
        },
        {
            "fginvn001": "B01",
            "fginvn004": "fginvn004Str",
            "fginvn002": "B201605310100021",
            "fginvn003": "B052601",
            "fginvn006": "MA",
            "fginvn007": "Inventory"
        },
        {
            "fginvn001": "C01",
            "fginvn004": "fginvn004Str",
            "fginvn002": "B201605310100031",
            "fginvn003": "C052601",
            "fginvn006": "MA",
            "fginvn007": "Inventory"
        },
        {
            "fginvn001": "A0101",
            "fginvn004": "fginvn004Str",
            "fginvn002": "A201605310100012",
            "fginvn003": "A05260101",
            "fginvn006": "MA",
            "fginvn007": "Inventory"
        },
        {
            "fginvn001": "A0102",
            "fginvn004": "fginvn004Str",
            "fginvn002": "A201605310100015",
            "fginvn003": "A05260102",
            "fginvn006": "PO",
            "fginvn007": "Inventory"
        },
        {
            "fginvn001": "A0103",
            "fginvn004": "fginvn004Str",
            "fginvn002": "A201605310100018",
            "fginvn003": "A052601",
            "fginvn006": "MA",
            "fginvn007": "Inventory"
        },
        {
            "fginvn001": "B0101",
            "fginvn004": "fginvn004Str",
            "fginvn002": "B201605310100022",
            "fginvn003": "B05260101",
            "fginvn006": "MA",
            "fginvn007": "Inventory"
        },
        {
            "fginvn001": "B0102",
            "fginvn004": "fginvn004Str",
            "fginvn002": "B201605310100025",
            "fginvn003": "B05260102",
            "fginvn006": "MA",
            "fginvn007": "Inventory"
        },
        {
            "fginvn001": "C0101",
            "fginvn004": "fginvn004Str",
            "fginvn002": "B201605310100032",
            "fginvn003": "C05260101",
            "fginvn006": "MA",
            "fginvn007": "Inventory"
        },
        {
            "fginvn001": "C0102",
            "fginvn004": "fginvn004Str",
            "fginvn002": "B201605310100033",
            "fginvn003": "C05260102",
            "fginvn006": "MA",
            "fginvn007": "Inventory"
        },
        {
            "fginvn001": "C0103",
            "fginvn004": "fginvn004Str",
            "fginvn002": "B201605310100034",
            "fginvn003": "C05260103",
            "fginvn006": "MA",
            "fginvn007": "Inventory"
        },
        {
            "fginvn001": "A010101",
            "fginvn004": "fginvn004Str",
            "fginvn002": "A201605310100013",
            "fginvn003": "A0526010101",
            "fginvn006": "MA",
            "fginvn007": "Inventory"
        },
        {
            "fginvn001": "A010102",
            "fginvn004": "fginvn004Str",
            "fginvn002": "A201605310100014",
            "fginvn003": "A05260101012",
            "fginvn006": "PO",
            "fginvn007": "Inventory"
        },
        {
            "fginvn001": "A010201",
            "fginvn004": "fginvn004Str",
            "fginvn002": "A201605310100016",
            "fginvn003": "A0526010201",
            "fginvn006": "MA",
            "fginvn007": "Inventory"
        },
        {
            "fginvn001": "A010202",
            "fginvn004": "fginvn004Str",
            "fginvn002": "A201605310100017",
            "fginvn003": "A0526010202",
            "fginvn006": "PO",
            "fginvn007": "Inventory"
        },
        {
            "fginvn001": "B010101",
            "fginvn004": "fginvn004Str",
            "fginvn002": "B201605310100023",
            "fginvn003": "B0526010101",
            "fginvn006": "PO",
            "fginvn007": "Inventory"
        },
        {
            "fginvn001": "B010102",
            "fginvn004": "fginvn004Str",
            "fginvn002": "B201605310100024",
            "fginvn003": "B0526010102",
            "fginvn006": "MA",
            "fginvn007": "Inventory"
        },
        {
            "fginvn001": "B010201",
            "fginvn004": "fginvn004Str",
            "fginvn002": "B201605310100026",
            "fginvn003": "B0526010201",
            "fginvn006": "PO",
            "fginvn007": "Inventory"
        }
    ],
    "tableHead": [
        {
            "fieldCode": "fginvn001",
            "fieldContent": "",
            "fieldDataType": "string",
            "fieldName": "存货ID",
            "fieldSort": "0",
            "fieldType": "0",
            "fieldDisplay":true
        },
        {
            "fieldCode": "fginvn002",
            "fieldContent": "",
            "fieldDataType": "string",
            "fieldName": "存货编码",
            "fieldSort": "1",
            "fieldType": "0",
            "fieldDisplay":true
        },
        {
            "fieldCode": "fginvn003",
            "fieldContent": "",
            "fieldDataType": "string",
            "fieldName": "存货名称",
            "fieldSort": "2",
            "fieldType": "0",
            "fieldDisplay":true
        },
        {
            "fieldCode": "fginvn004",
            "fieldContent": "",
            "fieldDataType": "string",
            "fieldName": "计量单位",
            "fieldSort": "3",
            "fieldType": "0",
            "fieldDisplay":false
        }
    ],
    "dataCount": 18
}